"ENTETE_COLONNE","Nom du festival","frais globaux festival","frais inscription","frais hébergement","commentaire festival","date","client pseudo ou commentaire","homme","femme","Genre indéterminé","somme achat","payé par le client","Produit 1","Produit 2","Produit 3","Produit 4","Produit 5","Produit 6","Produit 7","Produit 8","Produit 9","Produit 10","Produit 11","Produit 12","Produit 13","Produit 14","Produit 15","Produit 16","Produit 17","Produit 18","Produit 19","Produit 20"
"DEFINIR_PRIX",,,,,,,,,,,,,18,22,10,,,,,,,,,,,,,,,,,
"DEFINIR_STOCKS",,,,,,,,,,,,,25,20,100,,,,,,,,,,,,,,,,,
"INSERTION","harajuku festival 2010",,,,"il a fait fort beau, puis la pluie a attaqué le samedi, donc on a pas pu vendre au-delà de 14h",2010-12-31,"un gens",1,,,18,20,1,,,,,,,,,,,,,,,,,,,
,,,,,,,"une nana",,1,,22,30,,2,,,,,,,,,,,,,,,,,,
,,,,,,,"un furry",,,1,50,50,1,1,1,,,,,,,,,,,,,,,,,
,,,,,,,"un couple",1,1,,,,,,,,,,,,,,,,,,,,,,,
,,,,,,,"un mec a chapeau",1,,,,,,,,,,,,,,,,,,,,,,,,
,,,,,,2011-01-01,"une fille chat",,1,,,,,,,,,,,,,,,,,,,,,,,
,,,,,,,"etc",,,,,,,,,,,,,,,,,,,,,,,,,
,,,,,,,"etc",,,,,,,,,,,,,,,,,,,,,,,,,
"DEFINIR_STOCKS",,,,,,,,,,,,,27,28,,,,,,,,,,,,,,,,,,
"DEFINIR_PRIX",,,,,,,,,,,,,19,23,13,,,,,,,,,,,,,,,,,
"INSERTION","japan expo 2011",,,,"On monte les prix pour ce festival, édition pas mal cette fois. Beaucoup de petits poneys",2011-01-11,"etc",,,,,,,,,,,,,,,,,,,,,,,,,
,,,,,,,"etc",,,,,,,,,,,,,,,,,,,,,,,,,
,,,,,,,"etc",,,,,,,,,,,,,,,,,,,,,,,,,
,,,,,,,"etc",,,,,,,,,,,,,,,,,,,,,,,,,
,,,,,,,"etc",,,,,,,,,,,,,,,,,,,,,,,,,
,,,,,,,"etc",,,,,,,,,,,,,,,,,,,,,,,,,
,,,,,,,"etc",,,,,,,,,,,,,,,,,,,,,,,,,
,,,,,,,"etc",,,,,,,,,,,,,,,,,,,,,,,,,
,,,,,,,"etc",,,,,,,,,,,,,,,,,,,,,,,,,
